<?xml version="1.0" encoding="UTF-8" standalone="no"?>
<svg width="11px" height="18px" viewBox="0 0 11 18" version="1.1" xmlns="http://www.w3.org/2000/svg" xmlns:xlink="http://www.w3.org/1999/xlink">
    <defs></defs>
    <g id="Page-1" stroke="none" stroke-width="1" fill="none" fill-rule="evenodd">
        <g id="Medkrug-forum_7" transform="translate(-454.000000, -422.000000)" fill="#FFFFFF">
            <g id="Group" transform="translate(454.000000, 422.000000)">
                <path d="M1.968,5.832 L5.955,1.844 C6.345,1.453 6.345,0.82 5.955,0.43 C5.564,0.039 4.931,0.043 4.54,0.434 L0.554,4.422 C0.163,4.813 0.163,5.445 0.554,5.836 C0.945,6.227 1.578,6.223 1.968,5.832" id="Fill-403"></path>
                <path d="M9.092,5.832 L5.105,1.844 C4.715,1.453 4.715,0.82 5.105,0.43 C5.496,0.039 6.129,0.043 6.519,0.434 L10.506,4.422 C10.896,4.813 10.896,5.445 10.506,5.836 C10.115,6.227 9.482,6.223 9.092,5.832" id="Fill-404"></path>
                <path d="M9.092,11.809 L5.105,15.797 C4.715,16.188 4.715,16.82 5.105,17.211 C5.496,17.602 6.129,17.598 6.519,17.207 L10.506,13.219 C10.896,12.828 10.896,12.195 10.506,11.805 C10.115,11.414 9.482,11.418 9.092,11.809" id="Fill-405"></path>
                <path d="M1.968,11.809 L5.955,15.797 C6.345,16.188 6.345,16.82 5.954,17.211 C5.564,17.602 4.931,17.598 4.54,17.207 L0.554,13.219 C0.163,12.828 0.163,12.195 0.554,11.805 C0.945,11.414 1.578,11.418 1.968,11.809" id="Fill-406"></path>
            </g>
        </g>
    </g>
</svg>