<?xml version="1.0" encoding="UTF-8" standalone="no"?>
<svg width="17px" height="17px" viewBox="0 0 17 17" version="1.1" xmlns="http://www.w3.org/2000/svg" xmlns:xlink="http://www.w3.org/1999/xlink">
    <defs></defs>
    <g id="Page-1" stroke="none" stroke-width="1" fill="none" fill-rule="evenodd">
        <g id="icon-comment" fill="#C9CCD1">
            <path d="M14.232,0.7 L2.233,0.7 C0.234,0.7 0.241,2.7 0.241,2.7 L0.241,10.7 C0.241,10.7 0.241,12.68 2.241,12.7 C4.241,12.72 6.241,12.7 6.241,12.7 C6.241,12.7 7.078,12.72 7.386,13.07 L11.907,16.61 L12.069,16.7 C12.194,16.7 12.232,16.62 12.232,16.47 L12.232,13.13 C12.232,12.89 12.388,12.7 12.598,12.7 L14.241,12.7 C16.241,12.7 16.241,10.7 16.241,10.7 L16.241,2.7 C16.241,2.7 16.221,0.7 14.232,0.7 Z M14.241,10.7 L10.241,10.7 L10.241,12.7 L7.669,10.7 L2.241,10.7 L2.241,2.7 L14.241,2.7 L14.241,10.7 Z" id="Fill-429-path"></path>
        </g>
    </g>
</svg>