<?xml version="1.0" encoding="UTF-8" standalone="no"?>
<svg width="25px" height="25px" viewBox="0 0 25 25" version="1.1" xmlns="http://www.w3.org/2000/svg" xmlns:xlink="http://www.w3.org/1999/xlink">
    <defs></defs>
    <g id="Page-1" stroke="none" stroke-width="1" fill="none" fill-rule="evenodd">
        <g id="Fill-77-+-Fill-78" fill="#5D95C1">
            <path d="M12.42,24.89 C19.28,24.89 24.841,19.31 24.841,12.44 C24.841,5.57 19.28,0 12.42,0 C5.561,0 0,5.57 0,12.44 C0,19.31 5.561,24.89 12.42,24.89 Z M18.199,8.18 C17.75,8.38 17.266,8.51 16.76,8.57 C17.278,8.27 17.674,7.77 17.862,7.19 C17.377,7.47 16.842,7.68 16.273,7.8 C15.814,7.31 15.165,7 14.445,7 C13.064,7 11.943,8.13 11.943,9.51 C11.943,9.71 11.965,9.9 12.008,10.08 C9.928,9.98 8.083,8.98 6.849,7.46 C6.634,7.83 6.51,8.26 6.51,8.72 C6.51,9.59 6.952,10.36 7.623,10.81 C7.213,10.8 6.827,10.68 6.49,10.5 L6.49,10.53 C6.49,11.74 7.352,12.76 8.497,12.99 C8.287,13.04 8.066,13.07 7.838,13.07 C7.677,13.07 7.52,13.06 7.367,13.03 C7.685,14.03 8.609,14.75 9.705,14.77 C8.849,15.44 7.769,15.85 6.597,15.85 C6.395,15.85 6.196,15.83 6,15.81 C7.108,16.52 8.423,16.94 9.837,16.94 C14.44,16.94 16.957,13.12 16.957,9.8 C16.957,9.69 16.955,9.58 16.951,9.48 C17.439,9.12 17.863,8.68 18.199,8.18 Z" id="Fill-77"></path>
        </g>
    </g>
</svg>